Day7/day7.vcd
$date
   Sat May  4 08:58:26 2024
$end
$version
  2018.2
$end
$timescale
  1ps
$end
$scope module tb_lfsr $end
$var reg 1 ! clk $end
$var reg 1 " reset $end
$var reg 4 # lfsr_o [3:0] $end
$scope module DAY7 $end
$var wire 1 $ clk $end
$var wire 1 % reset $end
$var wire 4 & lfsr_o [3:0] $end
$var reg 4 ' lfsr_ff [3:0] $end
$var reg 4 ( nxt_lfsr [3:0] $end
$upscope $end
$scope begin Block43_3 $end
$var reg 32 ) i $end
$upscope $end
$upscope $end
$enddefinitions $end
#0
$dumpvars
1!
1"
bx #
1$
1%
bx &
bx '
bx (
b0 )
$end
#5000
0!
0$
#10000
1!
0"
b1110 #
1$
0%
b1110 &
b1110 '
b1100 (
b0 )
#15000
0!
0$
#20000
1!
b1100 #
1$
b1100 &
b1100 '
b1001 (
b1 )
#25000
0!
0$
#30000
1!
b1001 #
1$
b1001 &
b1001 '
b11 (
b10 )
#35000
0!
0$
#40000
1!
b11 #
1$
b11 &
b11 '
b111 (
b11 )
#45000
0!
0$
#50000
1!
b111 #
1$
b111 &
b111 '
b1111 (
b100 )
#55000
0!
0$
#60000
1!
b1111 #
1$
b1111 &
b1111 '
b1110 (
b101 )
#65000
0!
0$
#70000
1!
b1110 #
1$
b1110 &
b1110 '
b1100 (
b110 )
#75000
0!
0$
#80000
1!
b1100 #
1$
b1100 &
b1100 '
b1001 (
b111 )
#85000
0!
0$
#90000
1!
b1001 #
1$
b1001 &
b1001 '
b11 (
b1000 )
#95000
0!
0$
#100000
1!
b11 #
1$
b11 &
b11 '
b111 (
b1001 )
#105000
0!
0$
#110000
1!
b111 #
1$
b111 &
b111 '
b1111 (
b1010 )
#115000
0!
0$
#120000
1!
b1111 #
1$
b1111 &
b1111 '
b1110 (
b1011 )
#125000
0!
0$
#130000
1!
b1110 #
1$
b1110 &
b1110 '
b1100 (
b1100 )
#135000
0!
0$
#140000
1!
b1100 #
1$
b1100 &
b1100 '
b1001 (
b1101 )
#145000
0!
0$
#150000
1!
b1001 #
1$
b1001 &
b1001 '
b11 (
b1110 )
#155000
0!
0$
#160000
1!
b11 #
1$
b11 &
b11 '
b111 (
b1111 )
#165000
0!
0$
#170000
1!
b111 #
1$
b111 &
b111 '
b1111 (
b10000 )
#175000
0!
0$
#180000
1!
b1111 #
1$
b1111 &
b1111 '
b1110 (
b10001 )
#185000
0!
0$
#190000
1!
b1110 #
1$
b1110 &
b1110 '
b1100 (
b10010 )
#195000
0!
0$
#200000
1!
b1100 #
1$
b1100 &
b1100 '
b1001 (
b10011 )
#205000
0!
0$
#210000
1!
b1001 #
1$
b1001 &
b1001 '
b11 (
b10100 )
#215000
0!
0$
#220000
1!
b11 #
1$
b11 &
b11 '
b111 (
b10101 )
#225000
0!
0$
#230000
1!
b111 #
1$
b111 &
b111 '
b1111 (
b10110 )
#235000
0!
0$
#240000
1!
b1111 #
1$
b1111 &
b1111 '
b1110 (
b10111 )
#245000
0!
0$
#250000
1!
b1110 #
1$
b1110 &
b1110 '
b1100 (
b11000 )
#255000
0!
0$
#260000
1!
b1100 #
1$
b1100 &
b1100 '
b1001 (
b11001 )
#265000
0!
0$
#270000
1!
b1001 #
1$
b1001 &
b1001 '
b11 (
b11010 )
#275000
0!
0$
#280000
1!
b11 #
1$
b11 &
b11 '
b111 (
b11011 )
#285000
0!
0$
#290000
1!
b111 #
1$
b111 &
b111 '
b1111 (
b11100 )
#295000
0!
0$
#300000
1!
b1111 #
1$
b1111 &
b1111 '
b1110 (
b11101 )
#305000
0!
0$
#310000
1!
b1110 #
1$
b1110 &
b1110 '
b1100 (
b11110 )
#315000
0!
0$
#320000
1!
b1100 #
1$
b1100 &
b1100 '
b1001 (
b11111 )
