Day17/Day17.vcd
$date
   Sun Jun  2 09:25:24 2024
$end
$version
  2018.2
$end
$timescale
  1ps
$end
$scope module tb_rising_edge $end
$var reg 1 ! clk $end
$var reg 1 " reset $end
$var reg 1 # a_i $end
$var reg 1 $ rising_edge_o $end
$scope module edge1 $end
$var wire 1 % clk $end
$var wire 1 & reset $end
$var wire 1 ' a_i $end
$var wire 1 ( rising_edge_o $end
$var reg 1 ) a_ff $end
$upscope $end
$scope begin Block52_3 $end
$var reg 32 * i $end
$upscope $end
$upscope $end
$enddefinitions $end
#0
$dumpvars
1!
1"
1#
1$
1%
1&
1'
1(
0)
b0 *
$end
#5000
0!
0%
#10000
1!
0"
1%
0&
#15000
0!
0%
#20000
1!
0#
0$
1%
0'
0(
1)
#25000
0!
0%
#30000
1!
1#
1$
1%
1'
1(
0)
b1 *
#35000
0!
0%
#40000
1!
0$
1%
0(
1)
b10 *
#45000
0!
0%
#50000
1!
1%
b11 *
#55000
0!
0%
#60000
1!
1%
b100 *
#65000
0!
0%
#70000
1!
1%
b101 *
#75000
0!
0%
#80000
1!
1%
b110 *
#85000
0!
0%
#90000
1!
0#
1%
0'
0(
b111 *
#95000
0!
0%
#100000
1!
1#
1$
1%
1'
1(
0)
b1000 *
#105000
0!
0%
#110000
1!
0$
1%
0(
1)
b1001 *
#115000
0!
0%
#120000
1!
0#
1%
0'
0(
b1010 *
#125000
0!
0%
#130000
1!
1#
1$
1%
1'
1(
0)
b1011 *
#135000
0!
0%
#140000
1!
0$
1%
0(
1)
b1100 *
#145000
0!
0%
#150000
1!
0#
1%
0'
0(
b1101 *
#155000
0!
0%
#160000
1!
1#
1$
1%
1'
1(
0)
b1110 *
#165000
0!
0%
#170000
1!
0#
0$
1%
0'
0(
1)
b1111 *
#175000
0!
0%
#180000
1!
1#
1$
1%
1'
1(
0)
b10000 *
#185000
0!
0%
#190000
1!
0#
0$
1%
0'
0(
1)
b10001 *
#195000
0!
0%
#200000
1!
1#
1$
1%
1'
1(
0)
b10010 *
#205000
0!
0%
#210000
1!
0$
1%
0(
1)
b10011 *
#215000
0!
0%
#220000
1!
0#
1%
0'
0(
b10100 *
#225000
0!
0%
#230000
1!
1#
1$
1%
1'
1(
0)
b10101 *
#235000
0!
0%
#240000
1!
0#
0$
1%
0'
0(
1)
b10110 *
#245000
0!
0%
#250000
1!
1%
0(
0)
b10111 *
#255000
0!
0%
#260000
1!
1%
b11000 *
#265000
0!
0%
#270000
1!
1#
1$
1%
1'
1(
b11001 *
#275000
0!
0%
#280000
1!
0#
0$
1%
0'
0(
1)
b11010 *
#285000
0!
0%
#290000
1!
1#
1$
1%
1'
1(
0)
b11011 *
#295000
0!
0%
#300000
1!
0$
1%
0(
1)
b11100 *
#305000
0!
0%
#310000
1!
1%
b11101 *
#315000
0!
0%
#320000
1!
1%
b11110 *
#325000
0!
0%
#330000
1!
0#
1%
0'
0(
b11111 *
#335000
0!
0%
#340000
1!
1%
b100000 *
