Day16/day16.vcd
$date
   Sat May 18 08:49:21 2024
$end
$version
  2018.2
$end
$timescale
  1ps
$end
$scope module tb_APB_master $end
$var reg 1 ! clk $end
$var reg 1 " reset $end
$var reg 2 # cmd_i [1:0] $end
$var reg 1 $ psel_o $end
$var reg 1 % penable_o $end
$var reg 32 & paddr_o [31:0] $end
$var reg 1 ' pwrite_o $end
$var reg 32 ( pwdata_o [31:0] $end
$var reg 1 ) pready_i $end
$var reg 32 * prdata_i [31:0] $end
$var reg 32 + wait_cycles $end
$scope module DAY16 $end
$var wire 1 , clk $end
$var wire 1 - reset $end
$var wire 2 . cmd_i [1:0] $end
$var wire 1 / psel_o $end
$var wire 1 0 penable_o $end
$var wire 32 1 paddr_o [31:0] $end
$var wire 1 2 pwrite_o $end
$var wire 32 3 pwdata_o [31:0] $end
$var wire 1 4 pready_i $end
$var wire 32 5 prdata_i [31:0] $end
$var reg 2 6 nxt_state [1:0] $end
$var reg 2 7 state_q [1:0] $end
$var reg 32 8 rdata_q [31:0] $end
$upscope $end
$scope begin Block51_6 $end
$var reg 32 9 i $end
$upscope $end
$upscope $end
$enddefinitions $end
#0
$dumpvars
0!
1"
b0 #
0$
0%
b11011110101011011100101011111110 &
0'
b1 (
0)
b0 *
b101 +
0,
1-
b0 .
0/
00
b11011110101011011100101011111110 1
02
b1 3
04
b0 5
b0 6
b0 7
b0 8
b0 9
$end
#5000
1!
0"
b100 +
1,
0-
#10000
0!
0,
#15000
1!
b11 +
1,
#20000
0!
0,
#25000
1!
b1 #
b100 *
b10 +
1,
b1 .
b100 5
b1 6
#30000
0!
0,
#35000
1!
1$
b1 +
1,
1/
00
b10 6
b1 7
#40000
0!
0,
#45000
1!
1%
1)
b0 +
1,
1/
10
14
b0 6
b10 7
#50000
0!
0,
#55000
1!
b10 #
0$
0%
1'
0)
b1010 *
b101 +
1,
b10 .
0/
00
12
04
b1010 5
b1 6
b0 7
b1 9
#60000
0!
0,
#65000
1!
1$
b100 +
1,
1/
00
b10 6
b1 7
#70000
0!
0,
#75000
1!
1%
b11 +
1,
1/
10
b10 7
#80000
0!
0,
#85000
1!
b10 +
1,
#90000
0!
0,
#95000
1!
b1 +
1,
#100000
0!
0,
#105000
1!
b1011 (
1)
b0 +
1,
b1011 3
14
b0 6
b1010 8
#110000
0!
0,
#115000
1!
b1 #
0$
0%
0'
0)
b10 *
b10 +
1,
b1 .
0/
00
02
04
b10 5
b1 6
b0 7
b10 9
#120000
0!
0,
#125000
1!
1$
b1 +
1,
1/
00
b10 6
b1 7
#130000
0!
0,
#135000
1!
1%
1)
b0 +
1,
1/
10
14
b0 6
b10 7
#140000
0!
0,
#145000
1!
b10 #
0$
0%
1'
0)
b1001 *
b11 +
1,
b10 .
0/
00
12
04
b1001 5
b1 6
b0 7
b11 9
#150000
0!
0,
#155000
1!
1$
b10 +
1,
1/
00
b10 6
b1 7
#160000
0!
0,
#165000
1!
1%
b1 +
1,
1/
10
b10 7
#170000
0!
0,
#175000
1!
b1010 (
1)
b0 +
1,
b1010 3
14
b0 6
b1001 8
#180000
0!
0,
#185000
1!
b1 #
0$
0%
0'
0)
b110 *
b1000 +
1,
b1 .
0/
00
02
04
b110 5
b1 6
b0 7
b100 9
#190000
0!
0,
#195000
1!
1$
b111 +
1,
1/
00
b10 6
b1 7
#200000
0!
0,
#205000
1!
1%
b110 +
1,
1/
10
b10 7
#210000
0!
0,
#215000
1!
b101 +
1,
#220000
0!
0,
#225000
1!
b100 +
1,
#230000
0!
0,
#235000
1!
b11 +
1,
#240000
0!
0,
#245000
1!
b10 +
1,
#250000
0!
0,
#255000
1!
b1 +
1,
#260000
0!
0,
#265000
1!
b111 (
1)
b0 +
1,
b111 3
14
b0 6
b110 8
#270000
0!
0,
#275000
1!
b10 #
0$
0%
1'
0)
b11 *
b100 +
1,
b10 .
0/
00
12
04
b11 5
b1 6
b0 7
b101 9
#280000
0!
0,
#285000
1!
1$
b11 +
1,
1/
00
b10 6
b1 7
#290000
0!
0,
#295000
1!
1%
b10 +
1,
1/
10
b10 7
#300000
0!
0,
#305000
1!
b1 +
1,
#310000
0!
0,
#315000
1!
b100 (
1)
b0 +
1,
b100 3
14
b0 6
b11 8
#320000
0!
0,
#325000
1!
b1 #
0$
0%
0'
0)
b0 *
b111 +
1,
b1 .
0/
00
02
04
b0 5
b1 6
b0 7
b110 9
#330000
0!
0,
#335000
1!
1$
b110 +
1,
1/
00
b10 6
b1 7
#340000
0!
0,
#345000
1!
1%
b101 +
1,
1/
10
b10 7
#350000
0!
0,
#355000
1!
b100 +
1,
#360000
0!
0,
#365000
1!
b11 +
1,
#370000
0!
0,
#375000
1!
b10 +
1,
#380000
0!
0,
#385000
1!
b1 +
1,
#390000
0!
0,
#395000
1!
b1 (
1)
b0 +
1,
b1 3
14
b0 6
b0 8
#400000
0!
0,
#405000
1!
b10 #
0$
0%
1'
0)
b1010 *
b110 +
1,
b10 .
0/
00
12
04
b1010 5
b1 6
b0 7
b111 9
#410000
0!
0,
#415000
1!
1$
b101 +
1,
1/
00
b10 6
b1 7
#420000
0!
0,
#425000
1!
1%
b100 +
1,
1/
10
b10 7
#430000
0!
0,
#435000
1!
b11 +
1,
#440000
0!
0,
#445000
1!
b10 +
1,
#450000
0!
0,
#455000
1!
b1 +
1,
#460000
0!
0,
#465000
1!
b1011 (
1)
b0 +
1,
b1011 3
14
b0 6
b1010 8
#470000
0!
0,
#475000
1!
b1 #
0$
0%
0'
0)
b1110 *
b11 +
1,
b1 .
0/
00
02
04
b1110 5
b1 6
b0 7
b1000 9
#480000
0!
0,
#485000
1!
1$
b10 +
1,
1/
00
b10 6
b1 7
#490000
0!
0,
#495000
1!
1%
b1 +
1,
1/
10
b10 7
#500000
0!
0,
#505000
1!
b1111 (
1)
b0 +
1,
b1111 3
14
b0 6
b1110 8
#510000
0!
0,
#515000
1!
b10 #
0$
0%
1'
0)
b11 *
b10 +
1,
b10 .
0/
00
12
04
b11 5
b1 6
b0 7
b1001 9
#520000
0!
0,
#525000
1!
1$
b1 +
1,
1/
00
b10 6
b1 7
#530000
0!
0,
#535000
1!
1%
1)
b0 +
1,
1/
10
14
b0 6
b10 7
