Day12/day12.vcd
$date
   Sun May  5 20:37:06 2024
$end
$version
  2018.2
$end
$timescale
  1ps
$end
$scope module tb_seq_detector $end
$var reg 1 ! clk $end
$var reg 1 " reset $end
$var reg 1 # x_i $end
$var reg 1 $ det_o $end
$var reg 12 % seq [11:0] $end
$var reg 12 & i [11:0] $end
$var reg 12 ' j [11:0] $end
$scope module Day12 $end
$var wire 1 ( clk $end
$var wire 1 ) reset $end
$var wire 1 * x_i $end
$var wire 1 + det_o $end
$var reg 12 , shift_ff [11:0] $end
$var reg 12 - nxt_shift [11:0] $end
$upscope $end
$upscope $end
$enddefinitions $end
#0
$dumpvars
0!
1"
1#
0$
b111011011011 %
bx &
bx '
0(
1)
1*
0+
b0 ,
b1 -
$end
#5000
1!
0"
1(
0)
#10000
0!
0(
#15000
1!
b0 &
1(
0+
b1 ,
b11 -
#20000
0!
0(
#25000
1!
b1 &
1(
0+
b11 ,
b111 -
#30000
0!
0(
#35000
1!
0#
b10 &
1(
0*
0+
b111 ,
b1110 -
#40000
0!
0(
#45000
1!
1#
b11 &
1(
1*
0+
b1110 ,
b11101 -
#50000
0!
0(
#55000
1!
b100 &
1(
0+
b11101 ,
b111011 -
#60000
0!
0(
#65000
1!
0#
b101 &
1(
0*
0+
b111011 ,
b1110110 -
#70000
0!
0(
#75000
1!
1#
b110 &
1(
1*
0+
b1110110 ,
b11101101 -
#80000
0!
0(
#85000
1!
b111 &
1(
0+
b11101101 ,
b111011011 -
#90000
0!
0(
#95000
1!
0#
b1000 &
1(
0*
0+
b111011011 ,
b1110110110 -
#100000
0!
0(
#105000
1!
1#
b1001 &
1(
1*
0+
b1110110110 ,
b11101101101 -
#110000
0!
0(
#115000
1!
b1010 &
1(
0+
b11101101101 ,
b111011011011 -
#120000
0!
0(
#125000
1!
1$
b1011 &
1(
1+
b111011011011 ,
b110110110111 -
#130000
0!
0(
#135000
1!
0#
0$
b1100 &
b0 '
1(
0*
0+
b110110110111 ,
b101101101110 -
#140000
0!
0(
#145000
1!
1#
b1 '
1(
1*
0+
b101101101110 ,
b11011011101 -
#150000
0!
0(
#155000
1!
b10 '
1(
0+
b11011011101 ,
b110110111011 -
#160000
0!
0(
#165000
1!
b11 '
1(
0+
b110110111011 ,
b101101110111 -
#170000
0!
0(
#175000
1!
b100 '
1(
0+
b101101110111 ,
b11011101111 -
#180000
0!
0(
#185000
1!
b101 '
1(
0+
b11011101111 ,
b110111011111 -
#190000
0!
0(
#195000
1!
b110 '
1(
0+
b110111011111 ,
b101110111111 -
#200000
0!
0(
#205000
1!
0#
b111 '
1(
0*
0+
b101110111111 ,
b11101111110 -
#210000
0!
0(
#215000
1!
1#
b1000 '
1(
1*
0+
b11101111110 ,
b111011111101 -
#220000
0!
0(
#225000
1!
b1001 '
1(
0+
b111011111101 ,
b110111111011 -
#230000
0!
0(
#235000
1!
0#
b1010 '
1(
0*
0+
b110111111011 ,
b101111110110 -
#240000
0!
0(
#245000
1!
1#
b1011 '
1(
1*
0+
b101111110110 ,
b11111101101 -
#250000
0!
0(
#255000
1!
b1100 '
1(
